{"_embedded":{"events":[{"images":[{"width":640,"fallback":false,"url":"https:\/\/s1.ticketm.net\/dam\/a\/ac1\/3bc6b045-e04f-4520-b1de-b552e2b1cac1_1645021_RETINA_PORTRAIT_3_2.jpg","ratio":"3_2","height":427},{"width":205,"fallback":false,"url":"https:\/\/s1.ticketm.net\/dam\/a\/ac1\/3bc6b045-e04f-4520-b1de-b552e2b1cac1_1645021_EVENT_DETAIL_PAGE_16_9.jpg","ratio":"16_9","height":115},{"width":305,"fallback":false,"url":"https:\/\/s1.ticketm.net\/dam\/a\/ac1\/3bc6b045-e04f-4520-b1de-b552e2b1cac1_1645021_CUSTOM.jpg","ratio":"4_3","height":225},{"width":1024,"fallback":false,"url":"https:\/\/s1.ticketm.net\/dam\/a\/ac1\/3bc6b045-e04f-4520-b1de-b552e2b1cac1_1645021_TABLET_LANDSCAPE_3_2.jpg","ratio":"3_2","height":683},{"width":2048,"fallback":false,"url":"https:\/\/s1.ticketm.net\/dam\/a\/ac1\/3bc6b045-e04f-4520-b1de-b552e2b1cac1_1645021_TABLET_LANDSCAPE_LARGE_16_9.jpg","ratio":"16_9","height":1152},{"width":640,"fallback":false,"url":"https:\/\/s1.ticketm.net\/dam\/a\/ac1\/3bc6b045-e04f-4520-b1de-b552e2b1cac1_1645021_RETINA_PORTRAIT_16_9.jpg","ratio":"16_9","height":360},{"width":1024,"fallback":false,"url":"https:\/\/s1.ticketm.net\/dam\/a\/ac1\/3bc6b045-e04f-4520-b1de-b552e2b1cac1_1645021_TABLET_LANDSCAPE_16_9.jpg","ratio":"16_9","height":576},{"width":100,"fallback":false,"url":"https:\/\/s1.ticketm.net\/dam\/a\/ac1\/3bc6b045-e04f-4520-b1de-b552e2b1cac1_1645021_RECOMENDATION_16_9.jpg","ratio":"16_9","height":56},{"width":1136,"fallback":false,"url":"https:\/\/s1.ticketm.net\/dam\/a\/ac1\/3bc6b045-e04f-4520-b1de-b552e2b1cac1_1645021_RETINA_LANDSCAPE_16_9.jpg","ratio":"16_9","height":639},{"width":305,"fallback":false,"url":"https:\/\/s1.ticketm.net\/dam\/a\/ac1\/3bc6b045-e04f-4520-b1de-b552e2b1cac1_1645021_ARTIST_PAGE_3_2.jpg","ratio":"3_2","height":203}],"test":false,"_links":{"self":{"href":"\/discovery\/v2\/events\/Z7r9jZ1Ad8ekd?locale=en-us"},"venues":[{"href":"\/discovery\/v2\/venues\/Z6r9jZd6ee?locale=en-us"}],"attractions":[{"href":"\/discovery\/v2\/attractions\/K8vZ9171uq0?locale=en-us"}]},"outlets":[{"type":"venueBoxOffice","url":"https:\/\/www.mlb.com\/orioles"},{"type":"tmMarketPlace","url":"https:\/\/www.ticketmaster.com\/paul-mccartney-baltimore-maryland-06-12-2022\/event\/Zu0FM1R0e5tanYt"}],"dates":{"start":{"dateTime":"2022-06-13T00:00:00Z","localTime":"20:00:00","dateTBA":false,"noSpecificTime":false,"timeTBA":false,"localDate":"2022-06-12","dateTBD":false},"status":{"code":"onsale"},"spanMultipleDays":false},"type":"event","locale":"en-us","url":"https:\/\/www.ticketmaster.com\/event\/Z7r9jZ1Ad8ekd","sales":{"public":{"startDateTime":"2022-02-22T14:05:00Z","startTBD":false,"endDateTime":"2022-06-13T00:00:00Z","startTBA":false}},"classifications":[{"subGenre":{"name":"Classic Rock","id":"KZazBEonSMnZfZ7v6A7"},"segment":{"name":"Music","id":"KZFzniwnSyZfZ7v7nJ"},"genre":{"name":"Rock","id":"KnvZfZ7vAeA"},"family":false,"primary":true}],"_embedded":{"venues":[{"country":{"countryCode":"US","name":"United States Of America"},"address":{"line1":"333 West Camden St."},"test":false,"city":{"name":"Baltimore"},"_links":{"self":{"href":"\/discovery\/v2\/venues\/Z6r9jZd6ee?locale=en-us"}},"timezone":"America\/New_York","upcomingEvents":{"_total":56,"tmr":55,"ticketmaster":1,"_filtered":0},"postalCode":"21201","type":"venue","locale":"en-us","dmas":[{"id":224}],"name":"Camden Yards","location":{"latitude":"39.293999","longitude":"-76.622597"},"id":"Z6r9jZd6ee","state":{"name":"Maryland","stateCode":"MD"}}],"attractions":[{"classifications":[{"subGenre":{"name":"Pop","id":"KZazBEonSMnZfZ7v6F1"},"segment":{"name":"Music","id":"KZFzniwnSyZfZ7v7nJ"},"genre":{"name":"Rock","id":"KnvZfZ7vAeA"},"subType":{"name":"Undefined","id":"KZFzBErXgnZfZ7v7lJ"},"type":{"name":"Undefined","id":"KZAyXgnZfZ7v7nI"},"family":false,"primary":true}],"images":[{"width":640,"fallback":false,"url":"https:\/\/s1.ticketm.net\/dam\/a\/ac1\/3bc6b045-e04f-4520-b1de-b552e2b1cac1_1645021_RETINA_PORTRAIT_3_2.jpg","ratio":"3_2","height":427},{"width":205,"fallback":false,"url":"https:\/\/s1.ticketm.net\/dam\/a\/ac1\/3bc6b045-e04f-4520-b1de-b552e2b1cac1_1645021_EVENT_DETAIL_PAGE_16_9.jpg","ratio":"16_9","height":115},{"width":305,"fallback":false,"url":"https:\/\/s1.ticketm.net\/dam\/a\/ac1\/3bc6b045-e04f-4520-b1de-b552e2b1cac1_1645021_CUSTOM.jpg","ratio":"4_3","height":225},{"width":1024,"fallback":false,"url":"https:\/\/s1.ticketm.net\/dam\/a\/ac1\/3bc6b045-e04f-4520-b1de-b552e2b1cac1_1645021_TABLET_LANDSCAPE_3_2.jpg","ratio":"3_2","height":683},{"width":2048,"fallback":false,"url":"https:\/\/s1.ticketm.net\/dam\/a\/ac1\/3bc6b045-e04f-4520-b1de-b552e2b1cac1_1645021_TABLET_LANDSCAPE_LARGE_16_9.jpg","ratio":"16_9","height":1152},{"width":640,"fallback":false,"url":"https:\/\/s1.ticketm.net\/dam\/a\/ac1\/3bc6b045-e04f-4520-b1de-b552e2b1cac1_1645021_RETINA_PORTRAIT_16_9.jpg","ratio":"16_9","height":360},{"width":1024,"fallback":false,"url":"https:\/\/s1.ticketm.net\/dam\/a\/ac1\/3bc6b045-e04f-4520-b1de-b552e2b1cac1_1645021_TABLET_LANDSCAPE_16_9.jpg","ratio":"16_9","height":576},{"width":100,"fallback":false,"url":"https:\/\/s1.ticketm.net\/dam\/a\/ac1\/3bc6b045-e04f-4520-b1de-b552e2b1cac1_1645021_RECOMENDATION_16_9.jpg","ratio":"16_9","height":56},{"width":1136,"fallback":false,"url":"https:\/\/s1.ticketm.net\/dam\/a\/ac1\/3bc6b045-e04f-4520-b1de-b552e2b1cac1_1645021_RETINA_LANDSCAPE_16_9.jpg","ratio":"16_9","height":639},{"width":305,"fallback":false,"url":"https:\/\/s1.ticketm.net\/dam\/a\/ac1\/3bc6b045-e04f-4520-b1de-b552e2b1cac1_1645021_ARTIST_PAGE_3_2.jpg","ratio":"3_2","height":203}],"aliases":["mcartney","paul mccartney","paul macartney","paul mcartney","paul mccarthy","paul mccartny"],"test":false,"_links":{"self":{"href":"\/discovery\/v2\/attractions\/K8vZ9171uq0?locale=en-us"}},"upcomingEvents":{"_total":10,"tmr":3,"ticketmaster":7,"_filtered":0},"name":"Paul McCartney","externalLinks":{"youtube":[{"url":"https:\/\/www.youtube.com\/user\/PAULMCCARTNEY"}],"twitter":[{"url":"https:\/\/twitter.com\/PaulMcCartney"}],"lastfm":[{"url":"http:\/\/www.last.fm\/music\/Paul+McCartney"}],"facebook":[{"url":"https:\/\/www.facebook.com\/PaulMcCartney"}],"wiki":[{"url":"https:\/\/en.wikipedia.org\/wiki\/Paul_McCartney"}],"musicbrainz":[{"id":"ba550d0e-adac-4864-b88b-407cab5e76af"}],"homepage":[{"url":"http:\/\/www.paulmccartney.com\/"}]},"id":"K8vZ9171uq0","type":"attraction","locale":"en-us","url":"https:\/\/www.ticketmaster.com\/paul-mccartney-tickets\/artist\/735610"}]},"name":"Paul McCartney","id":"Z7r9jZ1Ad8ekd"},{"images":[{"width":640,"fallback":false,"url":"https:\/\/s1.ticketm.net\/dam\/a\/ac1\/3bc6b045-e04f-4520-b1de-b552e2b1cac1_1645021_RETINA_PORTRAIT_3_2.jpg","ratio":"3_2","height":427},{"width":205,"fallback":false,"url":"https:\/\/s1.ticketm.net\/dam\/a\/ac1\/3bc6b045-e04f-4520-b1de-b552e2b1cac1_1645021_EVENT_DETAIL_PAGE_16_9.jpg","ratio":"16_9","height":115},{"width":305,"fallback":false,"url":"https:\/\/s1.ticketm.net\/dam\/a\/ac1\/3bc6b045-e04f-4520-b1de-b552e2b1cac1_1645021_CUSTOM.jpg","ratio":"4_3","height":225},{"width":1024,"fallback":false,"url":"https:\/\/s1.ticketm.net\/dam\/a\/ac1\/3bc6b045-e04f-4520-b1de-b552e2b1cac1_1645021_TABLET_LANDSCAPE_3_2.jpg","ratio":"3_2","height":683},{"width":2048,"fallback":false,"url":"https:\/\/s1.ticketm.net\/dam\/a\/ac1\/3bc6b045-e04f-4520-b1de-b552e2b1cac1_1645021_TABLET_LANDSCAPE_LARGE_16_9.jpg","ratio":"16_9","height":1152},{"width":640,"fallback":false,"url":"https:\/\/s1.ticketm.net\/dam\/a\/ac1\/3bc6b045-e04f-4520-b1de-b552e2b1cac1_1645021_RETINA_PORTRAIT_16_9.jpg","ratio":"16_9","height":360},{"width":1024,"fallback":false,"url":"https:\/\/s1.ticketm.net\/dam\/a\/ac1\/3bc6b045-e04f-4520-b1de-b552e2b1cac1_1645021_TABLET_LANDSCAPE_16_9.jpg","ratio":"16_9","height":576},{"width":100,"fallback":false,"url":"https:\/\/s1.ticketm.net\/dam\/a\/ac1\/3bc6b045-e04f-4520-b1de-b552e2b1cac1_1645021_RECOMENDATION_16_9.jpg","ratio":"16_9","height":56},{"width":1136,"fallback":false,"url":"https:\/\/s1.ticketm.net\/dam\/a\/ac1\/3bc6b045-e04f-4520-b1de-b552e2b1cac1_1645021_RETINA_LANDSCAPE_16_9.jpg","ratio":"16_9","height":639},{"width":305,"fallback":false,"url":"https:\/\/s1.ticketm.net\/dam\/a\/ac1\/3bc6b045-e04f-4520-b1de-b552e2b1cac1_1645021_ARTIST_PAGE_3_2.jpg","ratio":"3_2","height":203}],"test":false,"seatmap":{"staticUrl":"https:\/\/content.resale.ticketmaster.com\/maps\/551-2031-2-main.gif"},"_links":{"self":{"href":"\/discovery\/v2\/events\/Z7r9jZ1AdC9f8?locale=en-us"},"venues":[{"href":"\/discovery\/v2\/venues\/Z6r9jZkkee?locale=en-us"}],"attractions":[{"href":"\/discovery\/v2\/attractions\/K8vZ9171uq0?locale=en-us"}]},"outlets":[{"type":"venueBoxOffice","url":"http:\/\/RedSox.com\/PaulMcCartney"},{"type":"tmMarketPlace","url":"https:\/\/www.ticketmaster.com\/paul-mccartney-got-back-boston-massachusetts-06-07-2022\/event\/Zu0FM1R0e5tu1la"}],"dates":{"start":{"dateTime":"2022-06-07T22:30:00Z","localTime":"18:30:00","dateTBA":false,"noSpecificTime":false,"timeTBA":false,"localDate":"2022-06-07","dateTBD":false},"status":{"code":"onsale"},"spanMultipleDays":false},"type":"event","locale":"en-us","url":"https:\/\/www.ticketmaster.com\/event\/Z7r9jZ1AdC9f8","sales":{"public":{"startDateTime":"2022-02-25T15:00:00Z","startTBD":false,"endDateTime":"2022-06-07T22:30:00Z","startTBA":false}},"classifications":[{"subGenre":{"name":"Classic Rock","id":"KZazBEonSMnZfZ7v6A7"},"segment":{"name":"Music","id":"KZFzniwnSyZfZ7v7nJ"},"genre":{"name":"Rock","id":"KnvZfZ7vAeA"},"family":false,"primary":true}],"_embedded":{"venues":[{"country":{"countryCode":"US","name":"United States Of America"},"address":{"line1":"4 Yawkey Way"},"test":false,"city":{"name":"Boston"},"_links":{"self":{"href":"\/discovery\/v2\/venues\/Z6r9jZkkee?locale=en-us"}},"timezone":"America\/New_York","upcomingEvents":{"_total":81,"tmr":65,"ticketmaster":16,"_filtered":0},"postalCode":"02215","type":"venue","locale":"en-us","dmas":[{"id":235}],"name":"Fenway Park","location":{"latitude":"42.346901","longitude":"-71.102501"},"id":"Z6r9jZkkee","state":{"name":"Massachusetts","stateCode":"MA"}}],"attractions":[{"classifications":[{"subGenre":{"name":"Pop","id":"KZazBEonSMnZfZ7v6F1"},"segment":{"name":"Music","id":"KZFzniwnSyZfZ7v7nJ"},"genre":{"name":"Rock","id":"KnvZfZ7vAeA"},"subType":{"name":"Undefined","id":"KZFzBErXgnZfZ7v7lJ"},"type":{"name":"Undefined","id":"KZAyXgnZfZ7v7nI"},"family":false,"primary":true}],"images":[{"width":640,"fallback":false,"url":"https:\/\/s1.ticketm.net\/dam\/a\/ac1\/3bc6b045-e04f-4520-b1de-b552e2b1cac1_1645021_RETINA_PORTRAIT_3_2.jpg","ratio":"3_2","height":427},{"width":205,"fallback":false,"url":"https:\/\/s1.ticketm.net\/dam\/a\/ac1\/3bc6b045-e04f-4520-b1de-b552e2b1cac1_1645021_EVENT_DETAIL_PAGE_16_9.jpg","ratio":"16_9","height":115},{"width":305,"fallback":false,"url":"https:\/\/s1.ticketm.net\/dam\/a\/ac1\/3bc6b045-e04f-4520-b1de-b552e2b1cac1_1645021_CUSTOM.jpg","ratio":"4_3","height":225},{"width":1024,"fallback":false,"url":"https:\/\/s1.ticketm.net\/dam\/a\/ac1\/3bc6b045-e04f-4520-b1de-b552e2b1cac1_1645021_TABLET_LANDSCAPE_3_2.jpg","ratio":"3_2","height":683},{"width":2048,"fallback":false,"url":"https:\/\/s1.ticketm.net\/dam\/a\/ac1\/3bc6b045-e04f-4520-b1de-b552e2b1cac1_1645021_TABLET_LANDSCAPE_LARGE_16_9.jpg","ratio":"16_9","height":1152},{"width":640,"fallback":false,"url":"https:\/\/s1.ticketm.net\/dam\/a\/ac1\/3bc6b045-e04f-4520-b1de-b552e2b1cac1_1645021_RETINA_PORTRAIT_16_9.jpg","ratio":"16_9","height":360},{"width":1024,"fallback":false,"url":"https:\/\/s1.ticketm.net\/dam\/a\/ac1\/3bc6b045-e04f-4520-b1de-b552e2b1cac1_1645021_TABLET_LANDSCAPE_16_9.jpg","ratio":"16_9","height":576},{"width":100,"fallback":false,"url":"https:\/\/s1.ticketm.net\/dam\/a\/ac1\/3bc6b045-e04f-4520-b1de-b552e2b1cac1_1645021_RECOMENDATION_16_9.jpg","ratio":"16_9","height":56},{"width":1136,"fallback":false,"url":"https:\/\/s1.ticketm.net\/dam\/a\/ac1\/3bc6b045-e04f-4520-b1de-b552e2b1cac1_1645021_RETINA_LANDSCAPE_16_9.jpg","ratio":"16_9","height":639},{"width":305,"fallback":false,"url":"https:\/\/s1.ticketm.net\/dam\/a\/ac1\/3bc6b045-e04f-4520-b1de-b552e2b1cac1_1645021_ARTIST_PAGE_3_2.jpg","ratio":"3_2","height":203}],"aliases":["mcartney","paul mccartney","paul macartney","paul mcartney","paul mccarthy","paul mccartny"],"test":false,"_links":{"self":{"href":"\/discovery\/v2\/attractions\/K8vZ9171uq0?locale=en-us"}},"upcomingEvents":{"_total":10,"tmr":3,"ticketmaster":7,"_filtered":0},"name":"Paul McCartney","externalLinks":{"youtube":[{"url":"https:\/\/www.youtube.com\/user\/PAULMCCARTNEY"}],"twitter":[{"url":"https:\/\/twitter.com\/PaulMcCartney"}],"lastfm":[{"url":"http:\/\/www.last.fm\/music\/Paul+McCartney"}],"facebook":[{"url":"https:\/\/www.facebook.com\/PaulMcCartney"}],"wiki":[{"url":"https:\/\/en.wikipedia.org\/wiki\/Paul_McCartney"}],"musicbrainz":[{"id":"ba550d0e-adac-4864-b88b-407cab5e76af"}],"homepage":[{"url":"http:\/\/www.paulmccartney.com\/"}]},"id":"K8vZ9171uq0","type":"attraction","locale":"en-us","url":"https:\/\/www.ticketmaster.com\/paul-mccartney-tickets\/artist\/735610"}]},"name":"PAUL McCARTNEY GOT BACK","promoter":{"name":"LIVE NATION MUSIC","description":"LIVE NATION MUSIC \/ NTL \/ USA","id":"653"},"id":"Z7r9jZ1AdC9f8","promoters":[{"name":"LIVE NATION MUSIC","description":"LIVE NATION MUSIC \/ NTL \/ USA","id":"653"}]},{"images":[{"width":640,"fallback":false,"url":"https:\/\/s1.ticketm.net\/dam\/a\/ac1\/3bc6b045-e04f-4520-b1de-b552e2b1cac1_1645021_RETINA_PORTRAIT_3_2.jpg","ratio":"3_2","height":427},{"width":205,"fallback":false,"url":"https:\/\/s1.ticketm.net\/dam\/a\/ac1\/3bc6b045-e04f-4520-b1de-b552e2b1cac1_1645021_EVENT_DETAIL_PAGE_16_9.jpg","ratio":"16_9","height":115},{"width":305,"fallback":false,"url":"https:\/\/s1.ticketm.net\/dam\/a\/ac1\/3bc6b045-e04f-4520-b1de-b552e2b1cac1_1645021_CUSTOM.jpg","ratio":"4_3","height":225},{"width":1024,"fallback":false,"url":"https:\/\/s1.ticketm.net\/dam\/a\/ac1\/3bc6b045-e04f-4520-b1de-b552e2b1cac1_1645021_TABLET_LANDSCAPE_3_2.jpg","ratio":"3_2","height":683},{"width":2048,"fallback":false,"url":"https:\/\/s1.ticketm.net\/dam\/a\/ac1\/3bc6b045-e04f-4520-b1de-b552e2b1cac1_1645021_TABLET_LANDSCAPE_LARGE_16_9.jpg","ratio":"16_9","height":1152},{"width":640,"fallback":false,"url":"https:\/\/s1.ticketm.net\/dam\/a\/ac1\/3bc6b045-e04f-4520-b1de-b552e2b1cac1_1645021_RETINA_PORTRAIT_16_9.jpg","ratio":"16_9","height":360},{"width":1024,"fallback":false,"url":"https:\/\/s1.ticketm.net\/dam\/a\/ac1\/3bc6b045-e04f-4520-b1de-b552e2b1cac1_1645021_TABLET_LANDSCAPE_16_9.jpg","ratio":"16_9","height":576},{"width":100,"fallback":false,"url":"https:\/\/s1.ticketm.net\/dam\/a\/ac1\/3bc6b045-e04f-4520-b1de-b552e2b1cac1_1645021_RECOMENDATION_16_9.jpg","ratio":"16_9","height":56},{"width":1136,"fallback":false,"url":"https:\/\/s1.ticketm.net\/dam\/a\/ac1\/3bc6b045-e04f-4520-b1de-b552e2b1cac1_1645021_RETINA_LANDSCAPE_16_9.jpg","ratio":"16_9","height":639},{"width":305,"fallback":false,"url":"https:\/\/s1.ticketm.net\/dam\/a\/ac1\/3bc6b045-e04f-4520-b1de-b552e2b1cac1_1645021_ARTIST_PAGE_3_2.jpg","ratio":"3_2","height":203}],"code":"NY1:ENM0616","test":false,"seatmap":{"staticUrl":"https:\/\/maps.ticketmaster.com\/maps\/geometry\/3\/event\/00005C49B7605EB3\/staticImage?type=png&systemId=HOST"},"accessibility":{"ticketLimit":4},"_links":{"self":{"href":"\/discovery\/v2\/events\/k7vGF97JMbABS?locale=en-us"},"venues":[{"href":"\/discovery\/v2\/venues\/KovZpakS7e?locale=en-us"}],"attractions":[{"href":"\/discovery\/v2\/attractions\/K8vZ9171uq0?locale=en-us"}]},"dates":{"timezone":"America\/New_York","start":{"dateTime":"2022-06-17T00:00:00Z","localTime":"20:00:00","dateTBA":false,"noSpecificTime":false,"timeTBA":false,"localDate":"2022-06-16","dateTBD":false},"status":{"code":"onsale"},"spanMultipleDays":false},"priceRanges":[{"min":39.5,"max":399.5,"currency":"USD","type":"standard"}],"type":"event","locale":"en-us","ageRestrictions":{"legalAgeEnforced":false},"url":"https:\/\/www.ticketmaster.com\/paul-mccartney-got-back-east-rutherford-new-jersey-06-16-2022\/event\/00005C49B7605EB3","sales":{"public":{"startDateTime":"2022-02-25T15:00:00Z","startTBD":false,"endDateTime":"2022-06-17T02:00:00Z","startTBA":false},"presales":[{"startDateTime":"2022-02-22T15:00:00Z","name":"American Express® Card Member Presale","endDateTime":"2022-02-25T03:00:00Z"},{"startDateTime":"2022-02-22T15:00:00Z","name":"American Express® VIP Package","endDateTime":"2022-02-22T17:00:00Z"},{"startDateTime":"2022-02-22T17:00:00Z","name":"VIP Package Presale","endDateTime":"2022-02-25T13:00:00Z"},{"startDateTime":"2022-02-22T17:00:00Z","name":"Paul McCartney Fan Presale","endDateTime":"2022-02-25T13:00:00Z"},{"startDateTime":"2022-02-24T15:00:00Z","name":"Ticketmaster Presale","endDateTime":"2022-02-25T13:00:00Z"},{"startDateTime":"2022-02-24T15:00:00Z","name":"Spotify Presale","endDateTime":"2022-02-25T13:00:00Z"},{"startDateTime":"2022-02-25T15:00:00Z","name":"American Express® Card Member Onsale","endDateTime":"2022-06-17T00:00:00Z"},{"startDateTime":"2022-02-25T15:00:00Z","name":"VIP Package Onsale","endDateTime":"2022-06-02T21:00:00Z"},{"startDateTime":"2022-02-22T15:00:00Z","name":"Official Platinum Presale","endDateTime":"2022-02-25T13:00:00Z"},{"startDateTime":"2022-02-25T15:00:00Z","name":"Official Platinum Onsale","endDateTime":"2022-06-17T00:00:00Z"}]},"classifications":[{"subGenre":{"name":"Pop","id":"KZazBEonSMnZfZ7v6F1"},"segment":{"name":"Music","id":"KZFzniwnSyZfZ7v7nJ"},"genre":{"name":"Rock","id":"KnvZfZ7vAeA"},"subType":{"name":"Undefined","id":"KZFzBErXgnZfZ7v7lJ"},"type":{"name":"Undefined","id":"KZAyXgnZfZ7v7nI"},"family":false,"primary":true}],"ticketLimit":{"info":"There is an overall (8) eight ticket limit for this event. There is a four ticket limit for VIP packages."},"_embedded":{"venues":[{"country":{"countryCode":"US","name":"United States Of America"},"images":[{"width":205,"fallback":false,"url":"https:\/\/s1.ticketm.net\/dbimages\/12804v.","ratio":"16_9","height":115},{"width":2955,"attribution":"CC BY 2.0 via Wikipedia","fallback":false,"url":"https:\/\/s1.ticketm.net\/dam\/v\/793\/22834897-5c42-42cd-ab62-f0addc54f793_417571_SOURCE.jpg","height":1812}],"address":{"line1":"One MetLife Stadium Drive"},"test":false,"city":{"name":"East Rutherford"},"social":{"twitter":{"handle":"@MLStadium"}},"_links":{"self":{"href":"\/discovery\/v2\/venues\/KovZpakS7e?locale=en-us"}},"timezone":"America\/New_York","upcomingEvents":{"_total":38,"ticketmaster":38,"_filtered":0},"postalCode":"07073","generalInfo":{"generalRule":"MetLife Stadium is committed to promoting a memorable event day experience for all fans. With that goal in mind, we have developed our Guest Code of Conduct to which we strongly encourage all guests to adhere. Keeping MetLife Stadium and Plaza SMOKE-FREE","childRule":"For non-NFL events, children under 34\u201D in height do not require a ticket of their own but must share a seat with an accompanying adult. All children taller than 34\u201D inches require a ticket of their own. For New York Jets games this 34\" rule applies For New York Giants games all guest need a ticket regardless of age. Please contact the stadium directly regarding the suitability of an event for children."},"type":"venue","locale":"en-us","boxOfficeInfo":{"openHoursDetail":"MetLife Stadium Box Office is open Monday \u2013 Friday 11am \u2013 5pm. The Box Office is located in the West VIP lobby. Please park in Lot G, enter through MetLife Gate and into the large glass doors labeled \u201CWest VIP.\u201D","phoneNumberDetail":"Box Office: 201.559.1300, tickets@metlifestadium.com - General Ticket Inquiries - ADA Ticket Inquiries Guest Services: 201.559.1515, info@metlifestadium.com","willCallDetail":"Ticketmaster Will Call may be picked up at any open ticket window. For all events, non-Ticketmaster will call orders may be picked up at the designated will call window. Will call tickets will be available beginning at least 2 hours prior to the scheduled start time for the event.","acceptedPaymentDetail":"The MetLife Stadium Box Office will accept cash, Visa, Mastercard, Discover, and American Express. Personal checks will not be accepted."},"url":"https:\/\/www.ticketmaster.com\/metlife-stadium-tickets-east-rutherford\/venue\/1233","markets":[{"name":"New York\/Tri-State Area","id":"35"},{"name":"Northern New Jersey","id":"55"},{"name":"Connecticut","id":"124"}],"dmas":[{"id":296},{"id":345},{"id":422}],"accessibleSeatingDetail":"MetLife Stadium is fully accessible including all concession stand locations, merchandise stands, ATM's and seating areas. Accessible seating for guests with special needs is available on all levels and in all price ranges. Elevators are located in the southeast (SAP), southwest (Verizon), and northwest (Pepsi) corners of the stadium. Ramps are located at the north and south entrances. Seats with removable armrests are located throughout the stadium. A limited number of wheelchairs are located at each of the entrance gates to transport guests with limited mobility to their seating area. Guests may contact the MetLife Stadium at 201-559-1515 or ADAinfo@metlifestadium.com for more information or any additional needs for non-NFL events. MetLife Stadium ADA Ticket Questions call 201-559-1300. New York Giants ADA Ticket Purchases call 201-935-8222. New York Jets ADA Ticket Purchases call 973-549-4585. For wheelchair accessible and limited mobility patrons for non-NFL events, please click on the \"Request Accessible Tickets\" icon on the right side of the page to be taken to a dedicated page for accessible seating purchases. Please request the total number of wheelchair plus companion seats or limited mobility plus companion seats within the same wheelchair dropdown box so you may sit together.","name":"MetLife Stadium","parkingDetail":"General Parking Information: * MetLife Stadium Parking Availability: There are approximately 23,000 parking spaces available that are distributed among 14 lots. * There is no street parking available near the stadium. * Parking fees will vary by event. * Accessible parking is available in Lots E, F, & G. Accessible parking is available on a first come \/ first serve basis. You must have parking pass and state- issued person with disabilities placard or license plate to park in an accessible parking space. Violators will be subject to citation and possible revocation of season or event parking privileges. *Taxi \/ Black Car, Limousine, and Guest drop offs will be permitted in Lot C. * Bus and R\/V Parking is available in Lot L. * All vehicles parking within the stadiums secured parking perimeter are subject to security inspection before being permitted to park. * Hours of Operation will vary per event. For NFL games, parking lots will open 5 hours prior to kickoff. All other events are subject to vary. * Parking passes are valid only for the event or game noted on the pass and for the specific lot. *Please note, all parking information may be amended based on the nature of the event, please contact the stadium at 201-559-1515 or info@metlifestadium.com with any specific questions not addressed above.","location":{"latitude":"40.81359","longitude":"-74.074493"},"id":"KovZpakS7e","state":{"name":"New Jersey","stateCode":"NJ"},"ada":{"adaCustomCopy":"For NFL New York Giants: 201-935-8222\n             \nFor NFL New York Jets: 973-549-4585                \n\nFor NON-NFL Events: 1-800-877-7575","adaPhones":"For NFL New York Giants: 201-935-8222\n             \nFor NFL New York Jets: 973-549-4585               \n            \nFor NON-NFL Events: 1-800-877-7575\n\n","adaHours":"See Above"}}],"attractions":[{"classifications":[{"subGenre":{"name":"Pop","id":"KZazBEonSMnZfZ7v6F1"},"segment":{"name":"Music","id":"KZFzniwnSyZfZ7v7nJ"},"genre":{"name":"Rock","id":"KnvZfZ7vAeA"},"subType":{"name":"Undefined","id":"KZFzBErXgnZfZ7v7lJ"},"type":{"name":"Undefined","id":"KZAyXgnZfZ7v7nI"},"family":false,"primary":true}],"images":[{"width":640,"fallback":false,"url":"https:\/\/s1.ticketm.net\/dam\/a\/ac1\/3bc6b045-e04f-4520-b1de-b552e2b1cac1_1645021_RETINA_PORTRAIT_3_2.jpg","ratio":"3_2","height":427},{"width":205,"fallback":false,"url":"https:\/\/s1.ticketm.net\/dam\/a\/ac1\/3bc6b045-e04f-4520-b1de-b552e2b1cac1_1645021_EVENT_DETAIL_PAGE_16_9.jpg","ratio":"16_9","height":115},{"width":305,"fallback":false,"url":"https:\/\/s1.ticketm.net\/dam\/a\/ac1\/3bc6b045-e04f-4520-b1de-b552e2b1cac1_1645021_CUSTOM.jpg","ratio":"4_3","height":225},{"width":1024,"fallback":false,"url":"https:\/\/s1.ticketm.net\/dam\/a\/ac1\/3bc6b045-e04f-4520-b1de-b552e2b1cac1_1645021_TABLET_LANDSCAPE_3_2.jpg","ratio":"3_2","height":683},{"width":2048,"fallback":false,"url":"https:\/\/s1.ticketm.net\/dam\/a\/ac1\/3bc6b045-e04f-4520-b1de-b552e2b1cac1_1645021_TABLET_LANDSCAPE_LARGE_16_9.jpg","ratio":"16_9","height":1152},{"width":640,"fallback":false,"url":"https:\/\/s1.ticketm.net\/dam\/a\/ac1\/3bc6b045-e04f-4520-b1de-b552e2b1cac1_1645021_RETINA_PORTRAIT_16_9.jpg","ratio":"16_9","height":360},{"width":1024,"fallback":false,"url":"https:\/\/s1.ticketm.net\/dam\/a\/ac1\/3bc6b045-e04f-4520-b1de-b552e2b1cac1_1645021_TABLET_LANDSCAPE_16_9.jpg","ratio":"16_9","height":576},{"width":100,"fallback":false,"url":"https:\/\/s1.ticketm.net\/dam\/a\/ac1\/3bc6b045-e04f-4520-b1de-b552e2b1cac1_1645021_RECOMENDATION_16_9.jpg","ratio":"16_9","height":56},{"width":1136,"fallback":false,"url":"https:\/\/s1.ticketm.net\/dam\/a\/ac1\/3bc6b045-e04f-4520-b1de-b552e2b1cac1_1645021_RETINA_LANDSCAPE_16_9.jpg","ratio":"16_9","height":639},{"width":305,"fallback":false,"url":"https:\/\/s1.ticketm.net\/dam\/a\/ac1\/3bc6b045-e04f-4520-b1de-b552e2b1cac1_1645021_ARTIST_PAGE_3_2.jpg","ratio":"3_2","height":203}],"aliases":["mcartney","paul mccartney","paul macartney","paul mcartney","paul mccarthy","paul mccartny"],"test":false,"_links":{"self":{"href":"\/discovery\/v2\/attractions\/K8vZ9171uq0?locale=en-us"}},"upcomingEvents":{"_total":10,"tmr":3,"ticketmaster":7,"_filtered":0},"name":"Paul McCartney","externalLinks":{"youtube":[{"url":"https:\/\/www.youtube.com\/user\/PAULMCCARTNEY"}],"twitter":[{"url":"https:\/\/twitter.com\/PaulMcCartney"}],"lastfm":[{"url":"http:\/\/www.last.fm\/music\/Paul+McCartney"}],"facebook":[{"url":"https:\/\/www.facebook.com\/PaulMcCartney"}],"wiki":[{"url":"https:\/\/en.wikipedia.org\/wiki\/Paul_McCartney"}],"musicbrainz":[{"id":"ba550d0e-adac-4864-b88b-407cab5e76af"}],"homepage":[{"url":"http:\/\/www.paulmccartney.com\/"}]},"id":"K8vZ9171uq0","type":"attraction","locale":"en-us","url":"https:\/\/www.ticketmaster.com\/paul-mccartney-tickets\/artist\/735610"}]},"name":"PAUL McCARTNEY GOT BACK","pleaseNote":"To allow for more Card Members to enjoy the show, American Express has set a two-order limit for this offer. This limit applies across all Cards associated with all of your American Express accounts. Prepaid Cards are not eligible.","promoter":{"name":"PROMOTED BY VENUE","description":"PROMOTED BY VENUE \/ NTL \/ USA","id":"494"},"id":"k7vGF97JMbABS","promoters":[{"name":"PROMOTED BY VENUE","description":"PROMOTED BY VENUE \/ NTL \/ USA","id":"494"}]}]},"_links":{"next":{"href":"\/discovery\/v2\/events.json?page=1&size=3"},"last":{"href":"\/discovery\/v2\/events.json?page=58189&size=3"},"self":{"href":"\/discovery\/v2\/events.json?size=3"},"first":{"href":"\/discovery\/v2\/events.json?page=0&size=3"}},"page":{"number":0,"size":3,"totalPages":58190,"totalElements":174569}}